[11:55:46.91] File Log_20_06_2019_11_55_46_Serial_Port.txt opened in directory " C:\Gil Projects\C# Monitor\bin\Debug\Logs\" 


[11:55:51.88]  Serial port Opened with   ,PortName = COM8 ,BaudRate = 115200 ,DataBits = 8 ,StopBits = One ,Parity = None
