[15:26:22.15] File Log_19_06_2019_15_26_22_Serial_Port.txt opened in directory " C:\Users\gilr\Desktop\c# Monitorr - Copy\bin\Debug\Logs\" 


[15:26:26.41]  Serial port Opened with   ,PortName = COM8 ,BaudRate = 115200 ,DataBits = 8 ,StopBits = One ,Parity = None
[15:26:28.91] Send Data: 1

[15:26:29.23] >>>>>>>>
1

[15:26:30.52] Send Data: 2

[15:26:30.83] >>>>>>>>
2

[15:26:31.38] Send Data: 3

[15:26:31.69] >>>>>>>>
3

