[17:57:54.45] File Log_19_06_2019_17_57_54_Serial_Port.txt opened in directory " C:\Gil Projects\C# Monitor\bin\Debug\Logs\" 


[17:57:59.01]  Serial port Opened with   ,PortName = COM8 ,BaudRate = 115200 ,DataBits = 8 ,StopBits = One ,Parity = None
[17:58:07.48] Send Data: StringToSend
[17:58:07.80] >>>>>>>>
StringToSend
[17:58:10.15] Send Data: 1\r
[17:58:10.47] >>>>>>>>
1\r
[17:58:14.89] Send Data: 1\n
[17:58:15.21] >>>>>>>>
1\n
