[15:08:08.18] File Log_19_06_2019_15_08_08_Serial_Port.txt opened in directory " C:\Users\gilr\Desktop\c# Monitorr - Copy\bin\Debug\Logs\" 


[15:08:13.15]  Serial port Opened with   ,PortName = COM8 ,BaudRate = 115200 ,DataBits = 8 ,StopBits = One ,Parity = None
[15:08:15.78] Send Data: String to Send

[15:08:16.09] >>>>>>>>
String to Send

[15:08:16.57] Send Data: String to Send

[15:08:16.87] >>>>>>>>
String to Send

[15:08:17.42] Send Data: String to Sendgfdgfdsg

[15:08:17.73] >>>>>>>>
String to Sendgfdgfdsg

[15:08:18.63] Send Data: String to Sendgfdgfdsgrgregr

[15:08:18.94] >>>>>>>>
String to Sendgfdgfdsgrgregr

[15:08:25.13] Send Data: rgsergreg

[15:08:25.43] >>>>>>>>
rgsergreg

[15:08:27.55] Send Data: rgsergregvbcvb

[15:08:27.86] >>>>>>>>
rgsergregvbcvb

