[14:57:53.84] File Log_19_06_2019_14_57_53_Serial_Port.txt opened in directory " C:\Users\gilr\Desktop\c# Monitorr - Copy\bin\Debug\Logs\" 


[14:57:58.10]  Serial port Opened with   ,PortName = COM8 ,BaudRate = 115200 ,DataBits = 8 ,StopBits = One ,Parity = None
[14:57:59.07] Send Data: String to Send

[14:57:59.39] >>>>>>>>
String to Send

[14:58:00.80] Send Data: String to Send

[14:58:01.10] >>>>>>>>
String to Send

[14:58:01.86] Send Data: String to Send

[14:58:02.16] >>>>>>>>
String to Send

[14:58:02.97] Send Data: String to Send

[14:58:03.28] >>>>>>>>
String to Send

