[15:20:22.44] File Log_19_06_2019_15_20_22_Serial_Port.txt opened in directory " C:\Users\gilr\Desktop\c# Monitorr - Copy\bin\Debug\Logs\" 


[15:20:26.72]  Serial port Opened with   ,PortName = COM8 ,BaudRate = 115200 ,DataBits = 8 ,StopBits = One ,Parity = None
[15:20:33.42] Send Data: 1

[15:20:33.74] >>>>>>>>
1

[15:20:34.88] Send Data: 12

[15:20:35.19] >>>>>>>>
12

[15:20:37.86] Send Data: 3

[15:20:38.17] >>>>>>>>
3

[15:20:39.10] Send Data: 4

[15:20:39.41] >>>>>>>>
4

[15:20:40.27] Send Data: 5

[15:20:40.59] >>>>>>>>
5

[15:20:41.04] Send Data: 6

[15:20:41.35] >>>>>>>>
6

[15:20:41.89] Send Data: 7

[15:20:42.20] >>>>>>>>
7

[15:20:42.72] Send Data: 8

[15:20:43.03] >>>>>>>>
8

