[17:32:54.80] File Log_19_06_2019_17_32_54_Serial_Port.txt opened in directory " C:\Gil Projects\C# Monitor\bin\Debug\Logs\" 


[17:32:59.48]  Serial port Opened with   ,PortName = COM8 ,BaudRate = 115200 ,DataBits = 8 ,StopBits = One ,Parity = None
[17:33:04.45] Send Data: StringToSend
[17:33:04.76] >>>>>>>>
StringToSend
