[11:44:24.38] File Log_20_06_2019_11_44_24_Serial_Port.txt opened in directory " C:\Gil Projects\C# Monitor\bin\Debug\Logs\" 


[11:44:27.99]  Serial port Opened with   ,PortName = COM8 ,BaudRate = 115200 ,DataBits = 8 ,StopBits = One ,Parity = None
[11:44:29.15] Data sent: [StringToSend]
[11:44:29.47] >>>>>>>>
StringToSend
[11:44:30.92] Data sent: []
[11:44:34.56] Data sent: [3423432]
[11:44:34.86] >>>>>>>>
3423432
[11:44:36.18] Data sent: [543524352436]
[11:44:36.49] >>>>>>>>
543524352436
