[17:08:13.24] File Log_10_10_2018_17_08_13_Server.txt opened in directory " C:\Users\gilr\Desktop\c# server - New I Watcher\bin\Debug\Logs\" 


[17:08:13.27] System.ArgumentOutOfRangeException: InvalidArgument=Value of '0' is not valid for 'SelectedIndex'.
Parameter name: SelectedIndex
   at System.Windows.Forms.ComboBox.set_SelectedIndex(Int32 value)
   at SocketServer.Form1.scanComports() in C:\Users\gilr\Desktop\c# server - New I Watcher\SocketServerForm.cs:line 11685
   at SocketServer.Form1.Form1_Load(Object sender, EventArgs e) in C:\Users\gilr\Desktop\c# server - New I Watcher\SocketServerForm.cs:line 6864
[17:08:43.79] [Internal GPRS Server] Server Started at port 2002
[17:08:48.39] [Internal GPRS Server] Server Stoped 
[17:08:49.82] [Internal GPRS Server] Server Started at port 2002
[17:08:50.78] [Internal GPRS Server] Server Stoped 
[17:09:01.38] [Internal GPRS Server] Server Stoped 
