[15:07:10.27] File Log_19_06_2019_15_07_10_Serial_Port.txt opened in directory " C:\Users\gilr\Desktop\c# Monitorr - Copy\bin\Debug\Logs\" 


[15:07:19.68]  Serial port Opened with   ,PortName = COM8 ,BaudRate = 115200 ,DataBits = 8 ,StopBits = One ,Parity = None
[15:07:24.68] Send Data: String to Senddfasdfdf

[15:07:25.00] >>>>>>>>
String to Senddfasdfdf

[15:07:25.50] Send Data: String to Senddfasdfdf

[15:07:25.81] >>>>>>>>
String to Senddfasdfdf

[15:07:27.79] Send Data: String to Senddfasdfdfewfaewf

[15:07:28.11] >>>>>>>>
String to Senddfasdfdfewfaewf

