[17:03:23.33] File Log_19_06_2019_17_03_23_Serial_Port.txt opened in directory " C:\Gil Projects\C# Monitor\bin\Debug\Logs\" 


[17:03:30.87]  Serial port Opened with   ,PortName = COM8 ,BaudRate = 115200 ,DataBits = 8 ,StopBits = One ,Parity = None
[17:03:34.44] Send Data: 1
[17:03:34.75] >>>>>>>>
1
[17:03:35.36] Send Data: 2
[17:03:35.67] >>>>>>>>
2
[17:03:36.63] Send Data: 3
[17:03:36.93] >>>>>>>>
3
[17:03:37.40] Send Data: 4
[17:03:37.71] >>>>>>>>
4
[17:03:38.22] Send Data: 6
[17:03:38.53] >>>>>>>>
6
[17:03:38.94] Send Data: 7
[17:03:39.25] >>>>>>>>
7
[17:03:45.63] Send Data: qwerty\r\n
[17:03:45.94] >>>>>>>>
qwerty\r\n
